{
    "project_type": "javascript",

    "debugMode" : 1,
    "showFPS" : true,
    "frameRate" : 60,
    "noCache" : false,
    "id" : "gameCanvas",
    "renderMode" : 0,
    "engineDir":"frameworks/cocos2d-html5",

    "modules" : ["cocos2d","extensions"],

    "jsList" : [
        "src/resource.js",
        "src/app.js",
        "src/scene/help.js",
        "src/scene/lobby.js",
        "src/scene/login.js",
        "src/config/gameConfig.js",
        "src/entity/user.js",
        "src/scene/logo.js",
        "src/scene/task.js",
        "src/scene/game.js",
        "src/scene/Cards.js",

        "src/util/util.js",

        "src/ui/Lobby.js",
        "src/ui/GameSceneUI.js",
        "src/ui/Setting.js",
        "src/ui/Help.js",
        "src/ui/Lobby.js",
        "src/ui/Player.js",

        "src/Sound.js",

        "src/Room.js",
        "src/testScene.js"
    ]
}
